%YAML 1.1
%TAG !u! tag:unity3d.com,2011:
--- !u!29 &1
OcclusionCullingSettings:
  m_ObjectHideFlags: 0
  serializedVersion: 2
  m_OcclusionBakeSettings:
    smallestOccluder: 5
    smallestHole: 0.25
    backfaceThreshold: 100
  m_SceneGUID: 00000000000000000000000000000000
  m_OcclusionCullingData: {fileID: 0}
--- !u!104 &2
RenderSettings:
  m_ObjectHideFlags: 0
  serializedVersion: 9
  m_Fog: 0
  m_FogColor: {r: 0.5, g: 0.5, b: 0.5, a: 1}
  m_FogMode: 3
  m_FogDensity: 0.01
  m_LinearFogStart: 0
  m_LinearFogEnd: 300
  m_AmbientSkyColor: {r: 0.212, g: 0.227, b: 0.259, a: 1}
  m_AmbientEquatorColor: {r: 0.114, g: 0.125, b: 0.133, a: 1}
  m_AmbientGroundColor: {r: 0.047, g: 0.043, b: 0.035, a: 1}
  m_AmbientIntensity: 1
  m_AmbientMode: 0
  m_SubtractiveShadowColor: {r: 0.42, g: 0.478, b: 0.627, a: 1}
  m_SkyboxMaterial: {fileID: 10304, guid: 0000000000000000f000000000000000, type: 0}
  m_HaloStrength: 0.5
  m_FlareStrength: 1
  m_FlareFadeSpeed: 3
  m_HaloTexture: {fileID: 0}
  m_SpotCookie: {fileID: 10001, guid: 0000000000000000e000000000000000, type: 0}
  m_DefaultReflectionMode: 0
  m_DefaultReflectionResolution: 128
  m_ReflectionBounces: 1
  m_ReflectionIntensity: 1
  m_CustomReflection: {fileID: 0}
  m_Sun: {fileID: 705507994}
  m_IndirectSpecularColor: {r: 0.44657868, g: 0.49641263, b: 0.57481706, a: 1}
  m_UseRadianceAmbientProbe: 0
--- !u!157 &3
LightmapSettings:
  m_ObjectHideFlags: 0
  serializedVersion: 11
  m_GIWorkflowMode: 0
  m_GISettings:
    serializedVersion: 2
    m_BounceScale: 1
    m_IndirectOutputScale: 1
    m_AlbedoBoost: 1
    m_EnvironmentLightingMode: 0
    m_EnableBakedLightmaps: 1
    m_EnableRealtimeLightmaps: 1
  m_LightmapEditorSettings:
    serializedVersion: 12
    m_Resolution: 2
    m_BakeResolution: 40
    m_AtlasSize: 1024
    m_AO: 0
    m_AOMaxDistance: 1
    m_CompAOExponent: 1
    m_CompAOExponentDirect: 0
    m_ExtractAmbientOcclusion: 0
    m_Padding: 2
    m_LightmapParameters: {fileID: 0}
    m_LightmapsBakeMode: 1
    m_TextureCompression: 1
    m_FinalGather: 0
    m_FinalGatherFiltering: 1
    m_FinalGatherRayCount: 256
    m_ReflectionCompression: 2
    m_MixedBakeMode: 2
    m_BakeBackend: 1
    m_PVRSampling: 1
    m_PVRDirectSampleCount: 32
    m_PVRSampleCount: 500
    m_PVRBounces: 2
    m_PVREnvironmentSampleCount: 500
    m_PVREnvironmentReferencePointCount: 2048
    m_PVRFilteringMode: 2
    m_PVRDenoiserTypeDirect: 0
    m_PVRDenoiserTypeIndirect: 0
    m_PVRDenoiserTypeAO: 0
    m_PVRFilterTypeDirect: 0
    m_PVRFilterTypeIndirect: 0
    m_PVRFilterTypeAO: 0
    m_PVREnvironmentMIS: 0
    m_PVRCulling: 1
    m_PVRFilteringGaussRadiusDirect: 1
    m_PVRFilteringGaussRadiusIndirect: 5
    m_PVRFilteringGaussRadiusAO: 2
    m_PVRFilteringAtrousPositionSigmaDirect: 0.5
    m_PVRFilteringAtrousPositionSigmaIndirect: 2
    m_PVRFilteringAtrousPositionSigmaAO: 1
    m_ShowResolutionOverlay: 1
    m_ExportTrainingData: 0
  m_LightingDataAsset: {fileID: 0}
  m_UseShadowmask: 1
--- !u!196 &4
NavMeshSettings:
  serializedVersion: 2
  m_ObjectHideFlags: 0
  m_BuildSettings:
    serializedVersion: 2
    agentTypeID: 0
    agentRadius: 0.5
    agentHeight: 2
    agentSlope: 45
    agentClimb: 0.4
    ledgeDropHeight: 0
    maxJumpAcrossDistance: 0
    minRegionArea: 2
    manualCellSize: 0
    cellSize: 0.16666667
    manualTileSize: 0
    tileSize: 256
    accuratePlacement: 0
    debug:
      m_Flags: 0
  m_NavMeshData: {fileID: 0}
--- !u!1001 &71859744
PrefabInstance:
  m_ObjectHideFlags: 0
  serializedVersion: 2
  m_Modification:
    m_TransformParent: {fileID: 0}
    m_Modifications:
    - target: {fileID: 7882376553669025676, guid: 945b71839aab6164999b099cce368bff,
        type: 3}
      propertyPath: m_Name
      value: Cube (3)
      objectReference: {fileID: 0}
    - target: {fileID: 7882376553669025672, guid: 945b71839aab6164999b099cce368bff,
        type: 3}
      propertyPath: m_LocalPosition.x
      value: 19.66
      objectReference: {fileID: 0}
    - target: {fileID: 7882376553669025672, guid: 945b71839aab6164999b099cce368bff,
        type: 3}
      propertyPath: m_LocalPosition.y
      value: 1.05
      objectReference: {fileID: 0}
    - target: {fileID: 7882376553669025672, guid: 945b71839aab6164999b099cce368bff,
        type: 3}
      propertyPath: m_LocalPosition.z
      value: 0
      objectReference: {fileID: 0}
    - target: {fileID: 7882376553669025672, guid: 945b71839aab6164999b099cce368bff,
        type: 3}
      propertyPath: m_LocalRotation.x
      value: -0
      objectReference: {fileID: 0}
    - target: {fileID: 7882376553669025672, guid: 945b71839aab6164999b099cce368bff,
        type: 3}
      propertyPath: m_LocalRotation.y
      value: -0
      objectReference: {fileID: 0}
    - target: {fileID: 7882376553669025672, guid: 945b71839aab6164999b099cce368bff,
        type: 3}
      propertyPath: m_LocalRotation.z
      value: 0.16997525
      objectReference: {fileID: 0}
    - target: {fileID: 7882376553669025672, guid: 945b71839aab6164999b099cce368bff,
        type: 3}
      propertyPath: m_LocalRotation.w
      value: 0.98544836
      objectReference: {fileID: 0}
    - target: {fileID: 7882376553669025672, guid: 945b71839aab6164999b099cce368bff,
        type: 3}
      propertyPath: m_RootOrder
      value: 6
      objectReference: {fileID: 0}
    - target: {fileID: 7882376553669025672, guid: 945b71839aab6164999b099cce368bff,
        type: 3}
      propertyPath: m_LocalEulerAnglesHint.x
      value: 0
      objectReference: {fileID: 0}
    - target: {fileID: 7882376553669025672, guid: 945b71839aab6164999b099cce368bff,
        type: 3}
      propertyPath: m_LocalEulerAnglesHint.y
      value: 0
      objectReference: {fileID: 0}
    - target: {fileID: 7882376553669025672, guid: 945b71839aab6164999b099cce368bff,
        type: 3}
      propertyPath: m_LocalEulerAnglesHint.z
      value: 19.573002
      objectReference: {fileID: 0}
    m_RemovedComponents: []
  m_SourcePrefab: {fileID: 100100000, guid: 945b71839aab6164999b099cce368bff, type: 3}
--- !u!1001 &435730716
PrefabInstance:
  m_ObjectHideFlags: 0
  serializedVersion: 2
  m_Modification:
    m_TransformParent: {fileID: 0}
    m_Modifications:
    - target: {fileID: 7882376553669025676, guid: 945b71839aab6164999b099cce368bff,
        type: 3}
      propertyPath: m_Name
      value: Cube (6)
      objectReference: {fileID: 0}
    - target: {fileID: 7882376553669025672, guid: 945b71839aab6164999b099cce368bff,
        type: 3}
      propertyPath: m_LocalPosition.x
      value: 33.51
      objectReference: {fileID: 0}
    - target: {fileID: 7882376553669025672, guid: 945b71839aab6164999b099cce368bff,
        type: 3}
      propertyPath: m_LocalPosition.y
      value: -0.35
      objectReference: {fileID: 0}
    - target: {fileID: 7882376553669025672, guid: 945b71839aab6164999b099cce368bff,
        type: 3}
      propertyPath: m_LocalPosition.z
      value: 0
      objectReference: {fileID: 0}
    - target: {fileID: 7882376553669025672, guid: 945b71839aab6164999b099cce368bff,
        type: 3}
      propertyPath: m_LocalRotation.x
      value: 0
      objectReference: {fileID: 0}
    - target: {fileID: 7882376553669025672, guid: 945b71839aab6164999b099cce368bff,
        type: 3}
      propertyPath: m_LocalRotation.y
      value: 0
      objectReference: {fileID: 0}
    - target: {fileID: 7882376553669025672, guid: 945b71839aab6164999b099cce368bff,
        type: 3}
      propertyPath: m_LocalRotation.z
      value: 0
      objectReference: {fileID: 0}
    - target: {fileID: 7882376553669025672, guid: 945b71839aab6164999b099cce368bff,
        type: 3}
      propertyPath: m_LocalRotation.w
      value: 1
      objectReference: {fileID: 0}
    - target: {fileID: 7882376553669025672, guid: 945b71839aab6164999b099cce368bff,
        type: 3}
      propertyPath: m_RootOrder
      value: 4
      objectReference: {fileID: 0}
    - target: {fileID: 7882376553669025672, guid: 945b71839aab6164999b099cce368bff,
        type: 3}
      propertyPath: m_LocalEulerAnglesHint.x
      value: 0
      objectReference: {fileID: 0}
    - target: {fileID: 7882376553669025672, guid: 945b71839aab6164999b099cce368bff,
        type: 3}
      propertyPath: m_LocalEulerAnglesHint.y
      value: 0
      objectReference: {fileID: 0}
    - target: {fileID: 7882376553669025672, guid: 945b71839aab6164999b099cce368bff,
        type: 3}
      propertyPath: m_LocalEulerAnglesHint.z
      value: 0
      objectReference: {fileID: 0}
    m_RemovedComponents: []
  m_SourcePrefab: {fileID: 100100000, guid: 945b71839aab6164999b099cce368bff, type: 3}
--- !u!1001 &524840437
PrefabInstance:
  m_ObjectHideFlags: 0
  serializedVersion: 2
  m_Modification:
    m_TransformParent: {fileID: 0}
    m_Modifications:
    - target: {fileID: 7882376553669025676, guid: 945b71839aab6164999b099cce368bff,
        type: 3}
      propertyPath: m_Name
      value: Cube (8)
      objectReference: {fileID: 0}
    - target: {fileID: 7882376553669025672, guid: 945b71839aab6164999b099cce368bff,
        type: 3}
      propertyPath: m_LocalPosition.x
      value: 34.11
      objectReference: {fileID: 0}
    - target: {fileID: 7882376553669025672, guid: 945b71839aab6164999b099cce368bff,
        type: 3}
      propertyPath: m_LocalPosition.y
      value: 9.61
      objectReference: {fileID: 0}
    - target: {fileID: 7882376553669025672, guid: 945b71839aab6164999b099cce368bff,
        type: 3}
      propertyPath: m_LocalPosition.z
      value: 0
      objectReference: {fileID: 0}
    - target: {fileID: 7882376553669025672, guid: 945b71839aab6164999b099cce368bff,
        type: 3}
      propertyPath: m_LocalRotation.x
      value: -0
      objectReference: {fileID: 0}
    - target: {fileID: 7882376553669025672, guid: 945b71839aab6164999b099cce368bff,
        type: 3}
      propertyPath: m_LocalRotation.y
      value: -0
      objectReference: {fileID: 0}
    - target: {fileID: 7882376553669025672, guid: 945b71839aab6164999b099cce368bff,
        type: 3}
      propertyPath: m_LocalRotation.z
      value: -0.2179711
      objectReference: {fileID: 0}
    - target: {fileID: 7882376553669025672, guid: 945b71839aab6164999b099cce368bff,
        type: 3}
      propertyPath: m_LocalRotation.w
      value: 0.97595525
      objectReference: {fileID: 0}
    - target: {fileID: 7882376553669025672, guid: 945b71839aab6164999b099cce368bff,
        type: 3}
      propertyPath: m_RootOrder
      value: 2
      objectReference: {fileID: 0}
    - target: {fileID: 7882376553669025672, guid: 945b71839aab6164999b099cce368bff,
        type: 3}
      propertyPath: m_LocalEulerAnglesHint.x
      value: 0
      objectReference: {fileID: 0}
    - target: {fileID: 7882376553669025672, guid: 945b71839aab6164999b099cce368bff,
        type: 3}
      propertyPath: m_LocalEulerAnglesHint.y
      value: 0
      objectReference: {fileID: 0}
    - target: {fileID: 7882376553669025672, guid: 945b71839aab6164999b099cce368bff,
        type: 3}
      propertyPath: m_LocalEulerAnglesHint.z
      value: -25.18
      objectReference: {fileID: 0}
    m_RemovedComponents: []
  m_SourcePrefab: {fileID: 100100000, guid: 945b71839aab6164999b099cce368bff, type: 3}
--- !u!108 &705507994 stripped
Light:
  m_CorrespondingSourceObject: {fileID: 5461637300438959508, guid: 6634c1778c79afc4a81cede328bfb15e,
    type: 3}
  m_PrefabInstance: {fileID: 5461637301144467214}
  m_PrefabAsset: {fileID: 0}
--- !u!1001 &778290799
PrefabInstance:
  m_ObjectHideFlags: 0
  serializedVersion: 2
  m_Modification:
    m_TransformParent: {fileID: 0}
    m_Modifications:
    - target: {fileID: 7882376553669025676, guid: 945b71839aab6164999b099cce368bff,
        type: 3}
      propertyPath: m_Name
      value: Cube (7)
      objectReference: {fileID: 0}
    - target: {fileID: 7882376553669025672, guid: 945b71839aab6164999b099cce368bff,
        type: 3}
      propertyPath: m_LocalPosition.x
      value: 39.78
      objectReference: {fileID: 0}
    - target: {fileID: 7882376553669025672, guid: 945b71839aab6164999b099cce368bff,
        type: 3}
      propertyPath: m_LocalPosition.y
      value: 3.67
      objectReference: {fileID: 0}
    - target: {fileID: 7882376553669025672, guid: 945b71839aab6164999b099cce368bff,
        type: 3}
      propertyPath: m_LocalPosition.z
      value: 0
      objectReference: {fileID: 0}
    - target: {fileID: 7882376553669025672, guid: 945b71839aab6164999b099cce368bff,
        type: 3}
      propertyPath: m_LocalRotation.x
      value: -0
      objectReference: {fileID: 0}
    - target: {fileID: 7882376553669025672, guid: 945b71839aab6164999b099cce368bff,
        type: 3}
      propertyPath: m_LocalRotation.y
      value: -0
      objectReference: {fileID: 0}
    - target: {fileID: 7882376553669025672, guid: 945b71839aab6164999b099cce368bff,
        type: 3}
      propertyPath: m_LocalRotation.z
      value: 0.20231463
      objectReference: {fileID: 0}
    - target: {fileID: 7882376553669025672, guid: 945b71839aab6164999b099cce368bff,
        type: 3}
      propertyPath: m_LocalRotation.w
      value: 0.9793206
      objectReference: {fileID: 0}
    - target: {fileID: 7882376553669025672, guid: 945b71839aab6164999b099cce368bff,
        type: 3}
      propertyPath: m_RootOrder
      value: 3
      objectReference: {fileID: 0}
    - target: {fileID: 7882376553669025672, guid: 945b71839aab6164999b099cce368bff,
        type: 3}
      propertyPath: m_LocalEulerAnglesHint.x
      value: 0
      objectReference: {fileID: 0}
    - target: {fileID: 7882376553669025672, guid: 945b71839aab6164999b099cce368bff,
        type: 3}
      propertyPath: m_LocalEulerAnglesHint.y
      value: 0
      objectReference: {fileID: 0}
    - target: {fileID: 7882376553669025672, guid: 945b71839aab6164999b099cce368bff,
        type: 3}
      propertyPath: m_LocalEulerAnglesHint.z
      value: 23.345001
      objectReference: {fileID: 0}
    m_RemovedComponents: []
  m_SourcePrefab: {fileID: 100100000, guid: 945b71839aab6164999b099cce368bff, type: 3}
--- !u!1001 &980289363
PrefabInstance:
  m_ObjectHideFlags: 0
  serializedVersion: 2
  m_Modification:
    m_TransformParent: {fileID: 0}
    m_Modifications:
    - target: {fileID: 7882376553669025676, guid: 945b71839aab6164999b099cce368bff,
        type: 3}
      propertyPath: m_Name
      value: Cube (9)
      objectReference: {fileID: 0}
    - target: {fileID: 7882376553669025672, guid: 945b71839aab6164999b099cce368bff,
        type: 3}
      propertyPath: m_LocalPosition.x
      value: 42.011738
      objectReference: {fileID: 0}
    - target: {fileID: 7882376553669025672, guid: 945b71839aab6164999b099cce368bff,
        type: 3}
      propertyPath: m_LocalPosition.y
      value: 13.1513405
      objectReference: {fileID: 0}
    - target: {fileID: 7882376553669025672, guid: 945b71839aab6164999b099cce368bff,
        type: 3}
      propertyPath: m_LocalPosition.z
      value: 0
      objectReference: {fileID: 0}
    - target: {fileID: 7882376553669025672, guid: 945b71839aab6164999b099cce368bff,
        type: 3}
      propertyPath: m_LocalRotation.x
      value: -0
      objectReference: {fileID: 0}
    - target: {fileID: 7882376553669025672, guid: 945b71839aab6164999b099cce368bff,
        type: 3}
      propertyPath: m_LocalRotation.y
      value: -0
      objectReference: {fileID: 0}
    - target: {fileID: 7882376553669025672, guid: 945b71839aab6164999b099cce368bff,
        type: 3}
      propertyPath: m_LocalRotation.z
      value: 0.10717661
      objectReference: {fileID: 0}
    - target: {fileID: 7882376553669025672, guid: 945b71839aab6164999b099cce368bff,
        type: 3}
      propertyPath: m_LocalRotation.w
      value: 0.99424
      objectReference: {fileID: 0}
    - target: {fileID: 7882376553669025672, guid: 945b71839aab6164999b099cce368bff,
        type: 3}
      propertyPath: m_RootOrder
      value: 1
      objectReference: {fileID: 0}
    - target: {fileID: 7882376553669025672, guid: 945b71839aab6164999b099cce368bff,
        type: 3}
      propertyPath: m_LocalEulerAnglesHint.x
      value: 0
      objectReference: {fileID: 0}
    - target: {fileID: 7882376553669025672, guid: 945b71839aab6164999b099cce368bff,
        type: 3}
      propertyPath: m_LocalEulerAnglesHint.y
      value: 0
      objectReference: {fileID: 0}
    - target: {fileID: 7882376553669025672, guid: 945b71839aab6164999b099cce368bff,
        type: 3}
      propertyPath: m_LocalEulerAnglesHint.z
      value: 12.305
      objectReference: {fileID: 0}
    m_RemovedComponents: []
  m_SourcePrefab: {fileID: 100100000, guid: 945b71839aab6164999b099cce368bff, type: 3}
--- !u!1001 &1123034561
PrefabInstance:
  m_ObjectHideFlags: 0
  serializedVersion: 2
  m_Modification:
    m_TransformParent: {fileID: 0}
    m_Modifications:
    - target: {fileID: 7061724445035356113, guid: 23775e2df0c20244b8e4933791a07252,
        type: 3}
      propertyPath: m_Name
      value: Capsule (2)
      objectReference: {fileID: 0}
    - target: {fileID: 7061724445035356117, guid: 23775e2df0c20244b8e4933791a07252,
        type: 3}
      propertyPath: m_LocalPosition.x
      value: 13.945884
      objectReference: {fileID: 0}
    - target: {fileID: 7061724445035356117, guid: 23775e2df0c20244b8e4933791a07252,
        type: 3}
      propertyPath: m_LocalPosition.y
      value: 3.1556053
      objectReference: {fileID: 0}
    - target: {fileID: 7061724445035356117, guid: 23775e2df0c20244b8e4933791a07252,
        type: 3}
      propertyPath: m_LocalPosition.z
      value: 0
      objectReference: {fileID: 0}
    - target: {fileID: 7061724445035356117, guid: 23775e2df0c20244b8e4933791a07252,
        type: 3}
      propertyPath: m_LocalRotation.x
      value: 0
      objectReference: {fileID: 0}
    - target: {fileID: 7061724445035356117, guid: 23775e2df0c20244b8e4933791a07252,
        type: 3}
      propertyPath: m_LocalRotation.y
      value: 0
      objectReference: {fileID: 0}
    - target: {fileID: 7061724445035356117, guid: 23775e2df0c20244b8e4933791a07252,
        type: 3}
      propertyPath: m_LocalRotation.z
      value: 0
      objectReference: {fileID: 0}
    - target: {fileID: 7061724445035356117, guid: 23775e2df0c20244b8e4933791a07252,
        type: 3}
      propertyPath: m_LocalRotation.w
      value: 1
      objectReference: {fileID: 0}
    - target: {fileID: 7061724445035356117, guid: 23775e2df0c20244b8e4933791a07252,
        type: 3}
      propertyPath: m_RootOrder
      value: 7
      objectReference: {fileID: 0}
    - target: {fileID: 7061724445035356117, guid: 23775e2df0c20244b8e4933791a07252,
        type: 3}
      propertyPath: m_LocalEulerAnglesHint.x
      value: 0
      objectReference: {fileID: 0}
    - target: {fileID: 7061724445035356117, guid: 23775e2df0c20244b8e4933791a07252,
        type: 3}
      propertyPath: m_LocalEulerAnglesHint.y
      value: 0
      objectReference: {fileID: 0}
    - target: {fileID: 7061724445035356117, guid: 23775e2df0c20244b8e4933791a07252,
        type: 3}
      propertyPath: m_LocalEulerAnglesHint.z
      value: 0
      objectReference: {fileID: 0}
    m_RemovedComponents: []
  m_SourcePrefab: {fileID: 100100000, guid: 23775e2df0c20244b8e4933791a07252, type: 3}
--- !u!1001 &1317218370
PrefabInstance:
  m_ObjectHideFlags: 0
  serializedVersion: 2
  m_Modification:
    m_TransformParent: {fileID: 0}
    m_Modifications:
    - target: {fileID: 7882376553669025676, guid: 945b71839aab6164999b099cce368bff,
        type: 3}
      propertyPath: m_Name
      value: Cube (2)
      objectReference: {fileID: 0}
    - target: {fileID: 7882376553669025672, guid: 945b71839aab6164999b099cce368bff,
        type: 3}
      propertyPath: m_LocalPosition.x
      value: 10.53
      objectReference: {fileID: 0}
    - target: {fileID: 7882376553669025672, guid: 945b71839aab6164999b099cce368bff,
        type: 3}
      propertyPath: m_LocalPosition.y
      value: 0.28626728
      objectReference: {fileID: 0}
    - target: {fileID: 7882376553669025672, guid: 945b71839aab6164999b099cce368bff,
        type: 3}
      propertyPath: m_LocalPosition.z
      value: 0
      objectReference: {fileID: 0}
    - target: {fileID: 7882376553669025672, guid: 945b71839aab6164999b099cce368bff,
        type: 3}
      propertyPath: m_LocalRotation.x
      value: 0
      objectReference: {fileID: 0}
    - target: {fileID: 7882376553669025672, guid: 945b71839aab6164999b099cce368bff,
        type: 3}
      propertyPath: m_LocalRotation.y
      value: 0
      objectReference: {fileID: 0}
    - target: {fileID: 7882376553669025672, guid: 945b71839aab6164999b099cce368bff,
        type: 3}
      propertyPath: m_LocalRotation.z
      value: 0
      objectReference: {fileID: 0}
    - target: {fileID: 7882376553669025672, guid: 945b71839aab6164999b099cce368bff,
        type: 3}
      propertyPath: m_LocalRotation.w
      value: 1
      objectReference: {fileID: 0}
    - target: {fileID: 7882376553669025672, guid: 945b71839aab6164999b099cce368bff,
        type: 3}
      propertyPath: m_RootOrder
      value: 9
      objectReference: {fileID: 0}
    - target: {fileID: 7882376553669025672, guid: 945b71839aab6164999b099cce368bff,
        type: 3}
      propertyPath: m_LocalEulerAnglesHint.x
      value: 0
      objectReference: {fileID: 0}
    - target: {fileID: 7882376553669025672, guid: 945b71839aab6164999b099cce368bff,
        type: 3}
      propertyPath: m_LocalEulerAnglesHint.y
      value: 0
      objectReference: {fileID: 0}
    - target: {fileID: 7882376553669025672, guid: 945b71839aab6164999b099cce368bff,
        type: 3}
      propertyPath: m_LocalEulerAnglesHint.z
      value: 0
      objectReference: {fileID: 0}
    - target: {fileID: 7882376553669025672, guid: 945b71839aab6164999b099cce368bff,
        type: 3}
      propertyPath: m_LocalScale.x
      value: 12.689617
      objectReference: {fileID: 0}
    m_RemovedComponents: []
  m_SourcePrefab: {fileID: 100100000, guid: 945b71839aab6164999b099cce368bff, type: 3}
--- !u!1001 &1533840932
PrefabInstance:
  m_ObjectHideFlags: 0
  serializedVersion: 2
  m_Modification:
    m_TransformParent: {fileID: 0}
    m_Modifications:
    - target: {fileID: 7061724445035356113, guid: 23775e2df0c20244b8e4933791a07252,
        type: 3}
      propertyPath: m_Name
      value: Capsule (1)
      objectReference: {fileID: 0}
    - target: {fileID: 7061724445035356117, guid: 23775e2df0c20244b8e4933791a07252,
        type: 3}
      propertyPath: m_LocalPosition.x
      value: 5.9363337
      objectReference: {fileID: 0}
    - target: {fileID: 7061724445035356117, guid: 23775e2df0c20244b8e4933791a07252,
        type: 3}
      propertyPath: m_LocalPosition.y
      value: 2.5339997
      objectReference: {fileID: 0}
    - target: {fileID: 7061724445035356117, guid: 23775e2df0c20244b8e4933791a07252,
        type: 3}
      propertyPath: m_LocalPosition.z
      value: 0
      objectReference: {fileID: 0}
    - target: {fileID: 7061724445035356117, guid: 23775e2df0c20244b8e4933791a07252,
        type: 3}
      propertyPath: m_LocalRotation.x
      value: 0
      objectReference: {fileID: 0}
    - target: {fileID: 7061724445035356117, guid: 23775e2df0c20244b8e4933791a07252,
        type: 3}
      propertyPath: m_LocalRotation.y
      value: 0
      objectReference: {fileID: 0}
    - target: {fileID: 7061724445035356117, guid: 23775e2df0c20244b8e4933791a07252,
        type: 3}
      propertyPath: m_LocalRotation.z
      value: 0
      objectReference: {fileID: 0}
    - target: {fileID: 7061724445035356117, guid: 23775e2df0c20244b8e4933791a07252,
        type: 3}
      propertyPath: m_LocalRotation.w
      value: 1
      objectReference: {fileID: 0}
    - target: {fileID: 7061724445035356117, guid: 23775e2df0c20244b8e4933791a07252,
        type: 3}
      propertyPath: m_RootOrder
      value: 8
      objectReference: {fileID: 0}
    - target: {fileID: 7061724445035356117, guid: 23775e2df0c20244b8e4933791a07252,
        type: 3}
      propertyPath: m_LocalEulerAnglesHint.x
      value: 0
      objectReference: {fileID: 0}
    - target: {fileID: 7061724445035356117, guid: 23775e2df0c20244b8e4933791a07252,
        type: 3}
      propertyPath: m_LocalEulerAnglesHint.y
      value: 0
      objectReference: {fileID: 0}
    - target: {fileID: 7061724445035356117, guid: 23775e2df0c20244b8e4933791a07252,
        type: 3}
      propertyPath: m_LocalEulerAnglesHint.z
      value: 0
      objectReference: {fileID: 0}
    m_RemovedComponents: []
  m_SourcePrefab: {fileID: 100100000, guid: 23775e2df0c20244b8e4933791a07252, type: 3}
--- !u!1001 &1628495343
PrefabInstance:
  m_ObjectHideFlags: 0
  serializedVersion: 2
  m_Modification:
    m_TransformParent: {fileID: 0}
    m_Modifications:
    - target: {fileID: 7882376553669025676, guid: 945b71839aab6164999b099cce368bff,
        type: 3}
      propertyPath: m_Name
      value: Cube (4)
      objectReference: {fileID: 0}
    - target: {fileID: 7882376553669025672, guid: 945b71839aab6164999b099cce368bff,
        type: 3}
      propertyPath: m_LocalPosition.x
      value: 23.895237
      objectReference: {fileID: 0}
    - target: {fileID: 7882376553669025672, guid: 945b71839aab6164999b099cce368bff,
        type: 3}
      propertyPath: m_LocalPosition.y
      value: 1.7586582
      objectReference: {fileID: 0}
    - target: {fileID: 7882376553669025672, guid: 945b71839aab6164999b099cce368bff,
        type: 3}
      propertyPath: m_LocalPosition.z
      value: 0
      objectReference: {fileID: 0}
    - target: {fileID: 7882376553669025672, guid: 945b71839aab6164999b099cce368bff,
        type: 3}
      propertyPath: m_LocalRotation.x
      value: 0
      objectReference: {fileID: 0}
    - target: {fileID: 7882376553669025672, guid: 945b71839aab6164999b099cce368bff,
        type: 3}
      propertyPath: m_LocalRotation.y
      value: 0
      objectReference: {fileID: 0}
    - target: {fileID: 7882376553669025672, guid: 945b71839aab6164999b099cce368bff,
        type: 3}
      propertyPath: m_LocalRotation.z
      value: 0
      objectReference: {fileID: 0}
    - target: {fileID: 7882376553669025672, guid: 945b71839aab6164999b099cce368bff,
        type: 3}
      propertyPath: m_LocalRotation.w
      value: 1
      objectReference: {fileID: 0}
    - target: {fileID: 7882376553669025672, guid: 945b71839aab6164999b099cce368bff,
        type: 3}
      propertyPath: m_RootOrder
      value: 5
      objectReference: {fileID: 0}
    - target: {fileID: 7882376553669025672, guid: 945b71839aab6164999b099cce368bff,
        type: 3}
      propertyPath: m_LocalEulerAnglesHint.x
      value: 0
      objectReference: {fileID: 0}
    - target: {fileID: 7882376553669025672, guid: 945b71839aab6164999b099cce368bff,
        type: 3}
      propertyPath: m_LocalEulerAnglesHint.y
      value: 0
      objectReference: {fileID: 0}
    - target: {fileID: 7882376553669025672, guid: 945b71839aab6164999b099cce368bff,
        type: 3}
      propertyPath: m_LocalEulerAnglesHint.z
      value: 0
      objectReference: {fileID: 0}
    m_RemovedComponents: []
  m_SourcePrefab: {fileID: 100100000, guid: 945b71839aab6164999b099cce368bff, type: 3}
--- !u!1001 &1874757660
PrefabInstance:
  m_ObjectHideFlags: 0
  serializedVersion: 2
  m_Modification:
    m_TransformParent: {fileID: 0}
    m_Modifications:
    - target: {fileID: 7882376553669025676, guid: 945b71839aab6164999b099cce368bff,
        type: 3}
      propertyPath: m_Name
      value: Cube (5)
      objectReference: {fileID: 0}
    - target: {fileID: 7882376553669025672, guid: 945b71839aab6164999b099cce368bff,
        type: 3}
      propertyPath: m_LocalPosition.x
      value: 28.36
      objectReference: {fileID: 0}
    - target: {fileID: 7882376553669025672, guid: 945b71839aab6164999b099cce368bff,
        type: 3}
      propertyPath: m_LocalPosition.y
      value: 0.11
      objectReference: {fileID: 0}
    - target: {fileID: 7882376553669025672, guid: 945b71839aab6164999b099cce368bff,
        type: 3}
      propertyPath: m_LocalPosition.z
      value: 0
      objectReference: {fileID: 0}
    - target: {fileID: 7882376553669025672, guid: 945b71839aab6164999b099cce368bff,
        type: 3}
      propertyPath: m_LocalRotation.x
      value: 0
      objectReference: {fileID: 0}
    - target: {fileID: 7882376553669025672, guid: 945b71839aab6164999b099cce368bff,
        type: 3}
      propertyPath: m_LocalRotation.y
      value: 0
      objectReference: {fileID: 0}
    - target: {fileID: 7882376553669025672, guid: 945b71839aab6164999b099cce368bff,
        type: 3}
      propertyPath: m_LocalRotation.z
      value: 0
      objectReference: {fileID: 0}
    - target: {fileID: 7882376553669025672, guid: 945b71839aab6164999b099cce368bff,
        type: 3}
      propertyPath: m_LocalRotation.w
      value: 1
      objectReference: {fileID: 0}
    - target: {fileID: 7882376553669025672, guid: 945b71839aab6164999b099cce368bff,
        type: 3}
      propertyPath: m_RootOrder
      value: 13
      objectReference: {fileID: 0}
    - target: {fileID: 7882376553669025672, guid: 945b71839aab6164999b099cce368bff,
        type: 3}
      propertyPath: m_LocalEulerAnglesHint.x
      value: 0
      objectReference: {fileID: 0}
    - target: {fileID: 7882376553669025672, guid: 945b71839aab6164999b099cce368bff,
        type: 3}
      propertyPath: m_LocalEulerAnglesHint.y
      value: 0
      objectReference: {fileID: 0}
    - target: {fileID: 7882376553669025672, guid: 945b71839aab6164999b099cce368bff,
        type: 3}
      propertyPath: m_LocalEulerAnglesHint.z
      value: 0
      objectReference: {fileID: 0}
    m_RemovedComponents: []
  m_SourcePrefab: {fileID: 100100000, guid: 945b71839aab6164999b099cce368bff, type: 3}
--- !u!1001 &3793422503399039800
PrefabInstance:
  m_ObjectHideFlags: 0
  serializedVersion: 2
  m_Modification:
    m_TransformParent: {fileID: 0}
    m_Modifications:
    - target: {fileID: 3793422503496679680, guid: 33efe67620606894eb701e1401ec503b,
        type: 3}
      propertyPath: m_Name
      value: Goal
      objectReference: {fileID: 0}
    - target: {fileID: 3793422503496679684, guid: 33efe67620606894eb701e1401ec503b,
        type: 3}
      propertyPath: m_LocalPosition.x
      value: 47.00389
      objectReference: {fileID: 0}
    - target: {fileID: 3793422503496679684, guid: 33efe67620606894eb701e1401ec503b,
        type: 3}
      propertyPath: m_LocalPosition.y
      value: 15.91
      objectReference: {fileID: 0}
    - target: {fileID: 3793422503496679684, guid: 33efe67620606894eb701e1401ec503b,
        type: 3}
      propertyPath: m_LocalPosition.z
      value: 0
      objectReference: {fileID: 0}
    - target: {fileID: 3793422503496679684, guid: 33efe67620606894eb701e1401ec503b,
        type: 3}
      propertyPath: m_LocalRotation.x
      value: 0
      objectReference: {fileID: 0}
    - target: {fileID: 3793422503496679684, guid: 33efe67620606894eb701e1401ec503b,
        type: 3}
      propertyPath: m_LocalRotation.y
      value: 0
      objectReference: {fileID: 0}
    - target: {fileID: 3793422503496679684, guid: 33efe67620606894eb701e1401ec503b,
        type: 3}
      propertyPath: m_LocalRotation.z
      value: 0
      objectReference: {fileID: 0}
    - target: {fileID: 3793422503496679684, guid: 33efe67620606894eb701e1401ec503b,
        type: 3}
      propertyPath: m_LocalRotation.w
      value: 1
      objectReference: {fileID: 0}
    - target: {fileID: 3793422503496679684, guid: 33efe67620606894eb701e1401ec503b,
        type: 3}
      propertyPath: m_RootOrder
      value: 15
      objectReference: {fileID: 0}
    - target: {fileID: 3793422503496679684, guid: 33efe67620606894eb701e1401ec503b,
        type: 3}
      propertyPath: m_LocalEulerAnglesHint.x
      value: 0
      objectReference: {fileID: 0}
    - target: {fileID: 3793422503496679684, guid: 33efe67620606894eb701e1401ec503b,
        type: 3}
      propertyPath: m_LocalEulerAnglesHint.y
      value: 0
      objectReference: {fileID: 0}
    - target: {fileID: 3793422503496679684, guid: 33efe67620606894eb701e1401ec503b,
        type: 3}
      propertyPath: m_LocalEulerAnglesHint.z
      value: 0
      objectReference: {fileID: 0}
    m_RemovedComponents: []
  m_SourcePrefab: {fileID: 100100000, guid: 33efe67620606894eb701e1401ec503b, type: 3}
--- !u!1001 &5461637301144467214
PrefabInstance:
  m_ObjectHideFlags: 0
  serializedVersion: 2
  m_Modification:
    m_TransformParent: {fileID: 0}
    m_Modifications:
    - target: {fileID: 5461637300438959511, guid: 6634c1778c79afc4a81cede328bfb15e,
        type: 3}
      propertyPath: m_Name
      value: Directional Light
      objectReference: {fileID: 0}
    - target: {fileID: 5461637300438959509, guid: 6634c1778c79afc4a81cede328bfb15e,
        type: 3}
      propertyPath: m_LocalPosition.x
      value: 0
      objectReference: {fileID: 0}
    - target: {fileID: 5461637300438959509, guid: 6634c1778c79afc4a81cede328bfb15e,
        type: 3}
      propertyPath: m_LocalPosition.y
      value: 3
      objectReference: {fileID: 0}
    - target: {fileID: 5461637300438959509, guid: 6634c1778c79afc4a81cede328bfb15e,
        type: 3}
      propertyPath: m_LocalPosition.z
      value: 0
      objectReference: {fileID: 0}
    - target: {fileID: 5461637300438959509, guid: 6634c1778c79afc4a81cede328bfb15e,
        type: 3}
      propertyPath: m_LocalRotation.x
      value: 0.40821788
      objectReference: {fileID: 0}
    - target: {fileID: 5461637300438959509, guid: 6634c1778c79afc4a81cede328bfb15e,
        type: 3}
      propertyPath: m_LocalRotation.y
      value: -0.23456968
      objectReference: {fileID: 0}
    - target: {fileID: 5461637300438959509, guid: 6634c1778c79afc4a81cede328bfb15e,
        type: 3}
      propertyPath: m_LocalRotation.z
      value: 0.10938163
      objectReference: {fileID: 0}
    - target: {fileID: 5461637300438959509, guid: 6634c1778c79afc4a81cede328bfb15e,
        type: 3}
      propertyPath: m_LocalRotation.w
      value: 0.8754261
      objectReference: {fileID: 0}
    - target: {fileID: 5461637300438959509, guid: 6634c1778c79afc4a81cede328bfb15e,
        type: 3}
      propertyPath: m_RootOrder
      value: 0
      objectReference: {fileID: 0}
    - target: {fileID: 5461637300438959509, guid: 6634c1778c79afc4a81cede328bfb15e,
        type: 3}
      propertyPath: m_LocalEulerAnglesHint.x
      value: 50
      objectReference: {fileID: 0}
    - target: {fileID: 5461637300438959509, guid: 6634c1778c79afc4a81cede328bfb15e,
        type: 3}
      propertyPath: m_LocalEulerAnglesHint.y
      value: -30
      objectReference: {fileID: 0}
    - target: {fileID: 5461637300438959509, guid: 6634c1778c79afc4a81cede328bfb15e,
        type: 3}
      propertyPath: m_LocalEulerAnglesHint.z
      value: 0
      objectReference: {fileID: 0}
    m_RemovedComponents: []
  m_SourcePrefab: {fileID: 100100000, guid: 6634c1778c79afc4a81cede328bfb15e, type: 3}
--- !u!1001 &5792745885433751747
PrefabInstance:
  m_ObjectHideFlags: 0
  serializedVersion: 2
  m_Modification:
    m_TransformParent: {fileID: 0}
    m_Modifications:
    - target: {fileID: 5792745886633429967, guid: e0d9cec05191db04fae194cb53334911,
        type: 3}
      propertyPath: m_Name
      value: Player
      objectReference: {fileID: 0}
    - target: {fileID: 5792745886633429969, guid: e0d9cec05191db04fae194cb53334911,
        type: 3}
      propertyPath: m_LocalPosition.x
      value: 0
      objectReference: {fileID: 0}
    - target: {fileID: 5792745886633429969, guid: e0d9cec05191db04fae194cb53334911,
        type: 3}
      propertyPath: m_LocalPosition.y
      value: 0
      objectReference: {fileID: 0}
    - target: {fileID: 5792745886633429969, guid: e0d9cec05191db04fae194cb53334911,
        type: 3}
      propertyPath: m_LocalPosition.z
      value: 0
      objectReference: {fileID: 0}
    - target: {fileID: 5792745886633429969, guid: e0d9cec05191db04fae194cb53334911,
        type: 3}
      propertyPath: m_LocalRotation.x
      value: 0
      objectReference: {fileID: 0}
    - target: {fileID: 5792745886633429969, guid: e0d9cec05191db04fae194cb53334911,
        type: 3}
      propertyPath: m_LocalRotation.y
      value: 0
      objectReference: {fileID: 0}
    - target: {fileID: 5792745886633429969, guid: e0d9cec05191db04fae194cb53334911,
        type: 3}
      propertyPath: m_LocalRotation.z
      value: 0
      objectReference: {fileID: 0}
    - target: {fileID: 5792745886633429969, guid: e0d9cec05191db04fae194cb53334911,
        type: 3}
      propertyPath: m_LocalRotation.w
      value: 1
      objectReference: {fileID: 0}
    - target: {fileID: 5792745886633429969, guid: e0d9cec05191db04fae194cb53334911,
        type: 3}
      propertyPath: m_RootOrder
      value: 11
      objectReference: {fileID: 0}
    - target: {fileID: 5792745886633429969, guid: e0d9cec05191db04fae194cb53334911,
        type: 3}
      propertyPath: m_LocalEulerAnglesHint.x
      value: 0
      objectReference: {fileID: 0}
    - target: {fileID: 5792745886633429969, guid: e0d9cec05191db04fae194cb53334911,
        type: 3}
      propertyPath: m_LocalEulerAnglesHint.y
      value: 0
      objectReference: {fileID: 0}
    - target: {fileID: 5792745886633429969, guid: e0d9cec05191db04fae194cb53334911,
        type: 3}
      propertyPath: m_LocalEulerAnglesHint.z
      value: 0
      objectReference: {fileID: 0}
    m_RemovedComponents: []
  m_SourcePrefab: {fileID: 100100000, guid: e0d9cec05191db04fae194cb53334911, type: 3}
--- !u!1001 &6420669155857648672
PrefabInstance:
  m_ObjectHideFlags: 0
  serializedVersion: 2
  m_Modification:
    m_TransformParent: {fileID: 0}
    m_Modifications:
    - target: {fileID: 6420669155595596968, guid: be3bef809ed94cd44ac90ebb5ce9c9cc,
        type: 3}
      propertyPath: m_Name
      value: death
      objectReference: {fileID: 0}
    - target: {fileID: 6420669155595596972, guid: be3bef809ed94cd44ac90ebb5ce9c9cc,
        type: 3}
      propertyPath: m_LocalPosition.x
      value: 16.839436
      objectReference: {fileID: 0}
    - target: {fileID: 6420669155595596972, guid: be3bef809ed94cd44ac90ebb5ce9c9cc,
        type: 3}
      propertyPath: m_LocalPosition.y
      value: -16.13
      objectReference: {fileID: 0}
    - target: {fileID: 6420669155595596972, guid: be3bef809ed94cd44ac90ebb5ce9c9cc,
        type: 3}
      propertyPath: m_LocalPosition.z
      value: 0
      objectReference: {fileID: 0}
    - target: {fileID: 6420669155595596972, guid: be3bef809ed94cd44ac90ebb5ce9c9cc,
        type: 3}
      propertyPath: m_LocalRotation.x
      value: 0
      objectReference: {fileID: 0}
    - target: {fileID: 6420669155595596972, guid: be3bef809ed94cd44ac90ebb5ce9c9cc,
        type: 3}
      propertyPath: m_LocalRotation.y
      value: 0
      objectReference: {fileID: 0}
    - target: {fileID: 6420669155595596972, guid: be3bef809ed94cd44ac90ebb5ce9c9cc,
        type: 3}
      propertyPath: m_LocalRotation.z
      value: 0
      objectReference: {fileID: 0}
    - target: {fileID: 6420669155595596972, guid: be3bef809ed94cd44ac90ebb5ce9c9cc,
        type: 3}
      propertyPath: m_LocalRotation.w
      value: 1
      objectReference: {fileID: 0}
    - target: {fileID: 6420669155595596972, guid: be3bef809ed94cd44ac90ebb5ce9c9cc,
        type: 3}
      propertyPath: m_RootOrder
      value: 14
      objectReference: {fileID: 0}
    - target: {fileID: 6420669155595596972, guid: be3bef809ed94cd44ac90ebb5ce9c9cc,
        type: 3}
      propertyPath: m_LocalEulerAnglesHint.x
      value: 0
      objectReference: {fileID: 0}
    - target: {fileID: 6420669155595596972, guid: be3bef809ed94cd44ac90ebb5ce9c9cc,
        type: 3}
      propertyPath: m_LocalEulerAnglesHint.y
      value: 0
      objectReference: {fileID: 0}
    - target: {fileID: 6420669155595596972, guid: be3bef809ed94cd44ac90ebb5ce9c9cc,
        type: 3}
      propertyPath: m_LocalEulerAnglesHint.z
      value: 0
      objectReference: {fileID: 0}
    m_RemovedComponents: []
  m_SourcePrefab: {fileID: 100100000, guid: be3bef809ed94cd44ac90ebb5ce9c9cc, type: 3}
--- !u!1001 &7061724445069915450
PrefabInstance:
  m_ObjectHideFlags: 0
  serializedVersion: 2
  m_Modification:
    m_TransformParent: {fileID: 0}
    m_Modifications:
    - target: {fileID: 7061724445035356113, guid: 23775e2df0c20244b8e4933791a07252,
        type: 3}
      propertyPath: m_Name
      value: Capsule
      objectReference: {fileID: 0}
    - target: {fileID: 7061724445035356117, guid: 23775e2df0c20244b8e4933791a07252,
        type: 3}
      propertyPath: m_LocalPosition.x
      value: 1.948
      objectReference: {fileID: 0}
    - target: {fileID: 7061724445035356117, guid: 23775e2df0c20244b8e4933791a07252,
        type: 3}
      propertyPath: m_LocalPosition.y
      value: 2.02
      objectReference: {fileID: 0}
    - target: {fileID: 7061724445035356117, guid: 23775e2df0c20244b8e4933791a07252,
        type: 3}
      propertyPath: m_LocalPosition.z
      value: 0
      objectReference: {fileID: 0}
    - target: {fileID: 7061724445035356117, guid: 23775e2df0c20244b8e4933791a07252,
        type: 3}
      propertyPath: m_LocalRotation.x
      value: 0
      objectReference: {fileID: 0}
    - target: {fileID: 7061724445035356117, guid: 23775e2df0c20244b8e4933791a07252,
        type: 3}
      propertyPath: m_LocalRotation.y
      value: 0
      objectReference: {fileID: 0}
    - target: {fileID: 7061724445035356117, guid: 23775e2df0c20244b8e4933791a07252,
        type: 3}
      propertyPath: m_LocalRotation.z
      value: 0
      objectReference: {fileID: 0}
    - target: {fileID: 7061724445035356117, guid: 23775e2df0c20244b8e4933791a07252,
        type: 3}
      propertyPath: m_LocalRotation.w
      value: 1
      objectReference: {fileID: 0}
    - target: {fileID: 7061724445035356117, guid: 23775e2df0c20244b8e4933791a07252,
        type: 3}
      propertyPath: m_RootOrder
      value: 12
      objectReference: {fileID: 0}
    - target: {fileID: 7061724445035356117, guid: 23775e2df0c20244b8e4933791a07252,
        type: 3}
      propertyPath: m_LocalEulerAnglesHint.x
      value: 0
      objectReference: {fileID: 0}
    - target: {fileID: 7061724445035356117, guid: 23775e2df0c20244b8e4933791a07252,
        type: 3}
      propertyPath: m_LocalEulerAnglesHint.y
      value: 0
      objectReference: {fileID: 0}
    - target: {fileID: 7061724445035356117, guid: 23775e2df0c20244b8e4933791a07252,
        type: 3}
      propertyPath: m_LocalEulerAnglesHint.z
      value: 0
      objectReference: {fileID: 0}
    m_RemovedComponents: []
  m_SourcePrefab: {fileID: 100100000, guid: 23775e2df0c20244b8e4933791a07252, type: 3}
--- !u!1001 &7882376554740087997
PrefabInstance:
  m_ObjectHideFlags: 0
  serializedVersion: 2
  m_Modification:
    m_TransformParent: {fileID: 0}
    m_Modifications:
    - target: {fileID: 7882376553669025676, guid: 945b71839aab6164999b099cce368bff,
        type: 3}
      propertyPath: m_Name
      value: Cube (1)
      objectReference: {fileID: 0}
    - target: {fileID: 7882376553669025672, guid: 945b71839aab6164999b099cce368bff,
        type: 3}
      propertyPath: m_LocalPosition.x
      value: 0.74799633
      objectReference: {fileID: 0}
    - target: {fileID: 7882376553669025672, guid: 945b71839aab6164999b099cce368bff,
        type: 3}
      propertyPath: m_LocalPosition.y
      value: -1.5523782
      objectReference: {fileID: 0}
    - target: {fileID: 7882376553669025672, guid: 945b71839aab6164999b099cce368bff,
        type: 3}
      propertyPath: m_LocalPosition.z
      value: 0
      objectReference: {fileID: 0}
    - target: {fileID: 7882376553669025672, guid: 945b71839aab6164999b099cce368bff,
        type: 3}
      propertyPath: m_LocalRotation.x
      value: 0
      objectReference: {fileID: 0}
    - target: {fileID: 7882376553669025672, guid: 945b71839aab6164999b099cce368bff,
        type: 3}
      propertyPath: m_LocalRotation.y
      value: 0
      objectReference: {fileID: 0}
    - target: {fileID: 7882376553669025672, guid: 945b71839aab6164999b099cce368bff,
        type: 3}
      propertyPath: m_LocalRotation.z
      value: 0
      objectReference: {fileID: 0}
    - target: {fileID: 7882376553669025672, guid: 945b71839aab6164999b099cce368bff,
        type: 3}
      propertyPath: m_LocalRotation.w
      value: 1
      objectReference: {fileID: 0}
    - target: {fileID: 7882376553669025672, guid: 945b71839aab6164999b099cce368bff,
        type: 3}
      propertyPath: m_RootOrder
      value: 10
      objectReference: {fileID: 0}
    - target: {fileID: 7882376553669025672, guid: 945b71839aab6164999b099cce368bff,
        type: 3}
      propertyPath: m_LocalEulerAnglesHint.x
      value: 0
      objectReference: {fileID: 0}
    - target: {fileID: 7882376553669025672, guid: 945b71839aab6164999b099cce368bff,
        type: 3}
      propertyPath: m_LocalEulerAnglesHint.y
      value: 0
      objectReference: {fileID: 0}
    - target: {fileID: 7882376553669025672, guid: 945b71839aab6164999b099cce368bff,
        type: 3}
      propertyPath: m_LocalEulerAnglesHint.z
      value: 0
      objectReference: {fileID: 0}
    m_RemovedComponents: []
  m_SourcePrefab: {fileID: 100100000, guid: 945b71839aab6164999b099cce368bff, type: 3}
